[
    {
      "id": "9020",
      "type": "LINK_FAILURE",
      "eta": 20.0,
      "header" : {
          "src":     "5",
          "og_src":  "5",
          "dest":    "7",
          "og_dest": "7"
      },
      "payload":{
        "data": "LINK_FAILURE",
        "table": [
            {"dest": "5", "cost": -1}
        ]
      }
    },
    {
      "id": "9021",
      "type": "LINK_FAILURE",
      "eta": 20.0,
      "header" : {
          "src":     "7",
          "og_src":  "7",
          "dest":    "5",
          "og_dest": "5"
      },
      "payload":{
        "data": "LINK_FAILURE",
        "table": [
            {"dest": "7", "cost": -1}
        ]
      }
    }
]