[
    {
      "id": "9030",
      "type": "LINK_FAILURE",
      "eta": 30.0,
      "header" : {
          "src":     "9",
          "og_src":  "9",
          "dest":    "17",
          "og_dest": "17"
      },
      "payload":{
        "data": "LINK_FAILURE",
        "table": [
            {"dest": "9", "cost": -1}
        ]
      }
    },
    {
      "id": "9031",
      "type": "LINK_FAILURE",
      "eta": 30.0,
      "header" : {
          "src":     "17",
          "og_src":  "17",
          "dest":    "9",
          "og_dest": "9"
      },
      "payload":{
        "data": "LINK_FAILURE",
        "table": [
            {"dest": "17", "cost": -1}
        ]
      }
    }
]