9 4 723 0.064421927
9 2 310 0.168573671
8 4 607 0.017962976
8 9 800 0.053785594
6 8 390 0.319194871
6 9 841 0.367844224
1 6 592 0.052211039
1 8 968 0.274740204
3 1 446 0.198267311
3 4 608 0.20502663
7 8 129 0.143587623
7 6 894 0.222064519
5 7 95  0.139020615
5 4 627 0.273298734
0 9 711 0.191414645
0 5 95  0.140136624
2 8 96  0.145320673
2 6 839 0.242952846
4 0 828 0.151615798
4 6 184 0.304440059